…
problem2_df
```

    ## # A tibble: 500 x 5
    ##          x       y vec_logical_sum_larger_t… pb2_logic_num pb2_logic_factor
    ##      <dbl>   <dbl> <lgl>                             <dbl> <fct>           
    ##  1  0.576   1.16   TRUE                                  1 TRUE            
    ##  2 -0.305  -1.11   FALSE                                 0 FALSE           
    ##  3  1.51   -2.53   FALSE                                 0 FALSE           
    ##  4  0.390  -0.936  FALSE                                 0 FALSE           
    ##  5 -0.621  -0.967  FALSE                                 0 FALSE           
    ##  6 -2.21    0.0475 FALSE                                 0 FALSE           
    ##  7  1.12   -0.404  FALSE                                 0 FALSE           
    ##  8 -0.0449  0.231  FALSE                                 0 FALSE           
    ##  9 -0.0162 -0.422  FALSE                                 0 FALSE           
    ## 10  0.944   0.374  TRUE                                  1 TRUE            
    ## # … with 490 more rows
…
